Zauberschule Bannmagie:
           Zauber brechen = 9
                   Konter = 6
             Wesen bannen = 3
                  Lähmung = 3
                     Aura = 1
                Hellsicht = 1
                    Fluch = 1
                  Schaden = 1
                Feenwesen = 1
              Nekromantie = 1
                    Sinne = 1
Zauberschule Beherrschungmagie:
                Kontrolle = 4
                   Mental = 4
            Halluzination = 3
                    Tiere = 2
              Einstellung = 2
               Gedächtnis = 2
                    Moral = 2
           Zauber brechen = 1
                  Tarnung = 1
                Feenwesen = 1
                Botschaft = 1
                 Gedanken = 1
                  Lähmung = 1
Zauberschule Bewegungsmagie:
              Telekinsese = 8
         Bewegung stärken = 7
       Elementarkontrolle = 3
                     Aura = 2
           Körper stärken = 2
                   Objekt = 2
                  Lähmung = 2
                  Wildnis = 2
                     Wand = 1
Zauberschule Erkenntnismagie:
                    Sinne = 8
            Verständigung = 6
              Wahrnehmung = 5
                Hellsicht = 4
                    Tiere = 2
             Geisterwesen = 2
                Botschaft = 2
             Prophezeiung = 2
              Einstellung = 1
                   Konter = 1
               Gedächtnis = 1
               Anderswelt = 1
                     Gift = 1
                 Gedanken = 1
                     Wand = 1
                  Wildnis = 1
Zauberschule Felsmagie:
                   Objekt = 4
       Elementarkontrolle = 3
                  Rüstung = 2
              Beschwörung = 2
                  Schaden = 2
           Körper stärken = 2
                     Haut = 2
                     Hand = 1
        Magisches Wesen 1 = 1
                  Gestalt = 1
                Felswesen = 1
             Herbeirufung = 1
                     Wand = 1
                  Wildnis = 1
Zauberschule Feuermagie:
                  Schaden = 5
       Elementarkontrolle = 3
                Explosion = 3
                   Objekt = 3
               Schutzfeld = 2
                    Waffe = 2
                     Aura = 1
                     Hand = 1
                   Schild = 1
                  Gestalt = 1
                     Wand = 1
Zauberschule Heilungsmagie:
                    Leben = 11
           Körper stärken = 7
                     Gift = 3
                     Aura = 2
             Regeneration = 2
                Hellsicht = 1
            Verständigung = 1
         Bewegung stärken = 1
                   Objekt = 1
                 Pflanzen = 1
Zauberschule Illusionsmagie:
                  Tarnung = 6
                 Trugbild = 4
                 Geräusch = 3
                   Konter = 2
                 Leuchten = 2
            Impersonation = 2
                Hellsicht = 1
            Halluzination = 1
                    Moral = 1
                   Objekt = 1
                    Sinne = 1
                   Geruch = 1
                 Gedanken = 1
Zauberschule Kampfmagie:
                  Schaden = 19
                    Waffe = 7
             Elektrizität = 3
                Explosion = 3
                    Pfeil = 2
                     Hand = 2
                      Eis = 2
                  Lähmung = 2
                    Säure = 1
                  Rüstung = 1
                 Leuchten = 1
                   Objekt = 1
                 Pflanzen = 1
             Herbeirufung = 1
Zauberschule Lichtmagie:
                 Leuchten = 12
                     Aura = 2
                    Segen = 2
           Zauber brechen = 2
                  Schaden = 2
              Nekromantie = 2
                     Wand = 2
                    Waffe = 2
             Wesen bannen = 1
               Schutzfeld = 1
                   Schild = 1
                  Gestalt = 1
             Herbeirufung = 1
                  Lähmung = 1
Zauberschule Naturmagie:
                    Tiere = 11
                 Pflanzen = 5
                  Gestalt = 4
                  Wildnis = 4
              Einstellung = 2
                     Aura = 2
       Elementarkontrolle = 2
                     Gift = 2
                    Alter = 1
                  Rüstung = 1
                    Pfeil = 1
                  Tarnung = 1
                Reinigung = 1
            Verständigung = 1
              Beschwörung = 1
                Kontrolle = 1
                    Fluch = 1
                  Schaden = 1
             Elektrizität = 1
           Körper stärken = 1
                Botschaft = 1
              Wahrnehmung = 1
                    Sinne = 1
                     Haut = 1
             Herbeirufung = 1
                    Waffe = 1
Zauberschule Schattenmagie:
               Verhüllung = 7
                    Sinne = 2
                 Belebung = 1
                     Aura = 1
           Zauber brechen = 1
                  Schaden = 1
         Bewegung stärken = 1
                   Objekt = 1
                 Trugbild = 1
                  Gestalt = 1
             Herbeirufung = 1
                     Wand = 1
                    Waffe = 1
Zauberschule Schicksalsmagie:
                    Segen = 7
                    Fluch = 6
             Prophezeiung = 2
                    Alter = 1
              Einstellung = 1
           Zauber brechen = 1
            Verständigung = 1
           Körper stärken = 1
                    Leben = 1
                   Mental = 1
              Nekromantie = 1
                   Objekt = 1
                  Lähmung = 1
                    Waffe = 1
Zauberschule Schutzmagie:
               Schutzfeld = 10
                  Rüstung = 5
                   Schild = 4
                   Konter = 3
           Körper stärken = 3
                   Objekt = 3
                     Haut = 3
                     Aura = 2
                      Eis = 2
                 Leuchten = 2
                    Leben = 2
              Einstellung = 1
                    Segen = 1
             Elektrizität = 1
              Nekromantie = 1
              Wahrnehmung = 1
                 Pflanzen = 1
                     Gift = 1
                 Gedanken = 1
               Verhüllung = 1
                     Wand = 1
Zauberschule Stärkungsmagie:
           Körper stärken = 10
                     Aura = 4
                    Leben = 3
                    Sinne = 3
                  Lähmung = 3
         Bewegung stärken = 2
                    Moral = 2
                   Objekt = 2
            Verständigung = 1
             Regeneration = 1
Zauberschule Todesmagie:
              Nekromantie = 5
                    Leben = 4
                    Fluch = 3
                  Lähmung = 3
             Geisterwesen = 2
               Anderswelt = 2
                    Alter = 1
                     Aura = 1
            Verständigung = 1
                  Schaden = 1
             Wesen bannen = 1
                   Mental = 1
              Wahrnehmung = 1
                 Pflanzen = 1
               Verhüllung = 1
Zauberschule Verwandlungmagie:
                  Gestalt = 9
                    Tiere = 6
            Impersonation = 4
                    Sinne = 3
                  Rüstung = 2
           Körper stärken = 2
                    Alter = 1
           Zauber brechen = 1
                  Tarnung = 1
         Bewegung stärken = 1
                     Hand = 1
                 Leuchten = 1
                   Objekt = 1
                 Pflanzen = 1
                     Haut = 1
                  Lähmung = 1
                  Wildnis = 1
Zauberschule Wassermagie:
                      Eis = 6
                  Schaden = 4
       Elementarkontrolle = 3
                Reinigung = 2
               Schutzfeld = 2
                    Säure = 1
                    Tiere = 1
         Bewegung stärken = 1
                   Objekt = 1
              Wahrnehmung = 1
                     Gift = 1
                   Schild = 1
                  Gestalt = 1
             Herbeirufung = 1
                     Wand = 1
                  Wildnis = 1
Zauberschule Windmagie:
       Elementarkontrolle = 6
             Elektrizität = 5
                  Schaden = 3
              Telekinsese = 3
               Schutzfeld = 2
             Herbeirufung = 2
         Bewegung stärken = 1
                     Hand = 1
                   Objekt = 1
                   Schild = 1
                  Gestalt = 1
                   Geruch = 1
                    Waffe = 1
                  Wildnis = 1